Name,Job Title,School,Location,URL
b'\n      Paul Garner\n    ',b'\n      Freelance Python Developer at Depop\n    ',b'',"b'\n    London, United Kingdom\n  '",b'https://www.linkedin.com/in/pauljgarner/'
b'\n      Scott White\n    ',b'\n      Python Developer / Django Developer at Rocksteady Games\n    ',b'',"b'\n    London, Greater London, United Kingdom\n  '",b'https://www.linkedin.com/in/scott-white-6a377a5a/'
b'\n      Ronan Murphy\n    ',b'\n      Python Developer at Origin Markets\n    ',b'',"b'\n    London, United Kingdom\n  '",b'https://www.linkedin.com/in/ronan-murphy-53898871/'
b'\n      Yaroslav Bikov\n    ',b'\n      Software Developer at Bank of America Merrill Lynch\n    ',b'',"b'\n    London, United Kingdom\n  '",b'https://www.linkedin.com/in/python-developer/'
b'\n      Alex Eastwood\n    ',b'\n      Python Developer at Firmstep\n    ',b'',"b'\n    London, United Kingdom\n  '",b'https://www.linkedin.com/in/eastwoodalex/'
b'\n      Rupert Bedford\n    ',b'\n      Python Developer\n    ',b'',"b'\n    London, United Kingdom\n  '",b'https://www.linkedin.com/in/rupert-bedford-29277796/'
b'\n      Gautier Hayoun\n    ',b'\n      Contract Python Developer at Bank Of America\n    ',b'',"b'\n    London, United Kingdom\n  '",b'https://www.linkedin.com/in/gowtier/'
b'\n      Nestor Arocha\n    ',b'\n      Senior Python Developer at iwoca\n    ',b'',"b'\n    London, United Kingdom\n  '",b'https://www.linkedin.com/in/nestor-arocha-5869a010/'
b'\n      Ugo Anomelechi\n    ',b'\n      Senior Python Developer at infloAI\n    ',b'',"b'\n    Croydon, United Kingdom\n  '",b'https://www.linkedin.com/in/ugoano/'
b'\n      Tobey Asinugo\n    ',b'\n      Python Developer at Ueni Ltd\n    ',b'',"b'\n    London, Greater London, United Kingdom\n  '",b'https://www.linkedin.com/in/tobey-asinugo-84916877/'
b'\n      Paul Garner\n    ',b'\n      Freelance Python Developer at Depop\n    ',b'',"b'\n    London, United Kingdom\n  '",b'https://www.linkedin.com/in/pauljgarner/'
b'\n      Scott White\n    ',b'\n      Python Developer / Django Developer at Rocksteady Games\n    ',b'',"b'\n    London, Greater London, United Kingdom\n  '",b'https://www.linkedin.com/in/scott-white-6a377a5a/'
b'\n      Ronan Murphy\n    ',b'\n      Python Developer at Origin Markets\n    ',b'',"b'\n    London, United Kingdom\n  '",b'https://www.linkedin.com/in/ronan-murphy-53898871/'
b'\n      Yaroslav Bikov\n    ',b'\n      Software Developer at Bank of America Merrill Lynch\n    ',b'',"b'\n    London, United Kingdom\n  '",b'https://www.linkedin.com/in/python-developer/'
b'\n      Alex Eastwood\n    ',b'\n      Python Developer at Firmstep\n    ',b'',"b'\n    London, United Kingdom\n  '",b'https://www.linkedin.com/in/eastwoodalex/'
b'\n      Rupert Bedford\n    ',b'\n      Python Developer\n    ',b'',"b'\n    London, United Kingdom\n  '",b'https://www.linkedin.com/in/rupert-bedford-29277796/'
b'\n      Gautier Hayoun\n    ',b'\n      Contract Python Developer at Bank Of America\n    ',b'',"b'\n    London, United Kingdom\n  '",b'https://www.linkedin.com/in/gowtier/'
b'\n      Nestor Arocha\n    ',b'\n      Senior Python Developer at iwoca\n    ',b'',"b'\n    London, United Kingdom\n  '",b'https://www.linkedin.com/in/nestor-arocha-5869a010/'
b'\n      Ugo Anomelechi\n    ',b'\n      Senior Python Developer at infloAI\n    ',b'',"b'\n    Croydon, United Kingdom\n  '",b'https://www.linkedin.com/in/ugoano/'
b'\n      Tobey Asinugo\n    ',b'\n      Python Developer at Ueni Ltd\n    ',b'',"b'\n    London, Greater London, United Kingdom\n  '",b'https://www.linkedin.com/in/tobey-asinugo-84916877/'
b'\n      Paul Garner\n    ',b'\n      Freelance Python Developer at Depop\n    ',b'',"b'\n    London, United Kingdom\n  '",b'https://www.linkedin.com/in/pauljgarner/'
b'\n      Scott White\n    ',b'\n      Python Developer / Django Developer at Rocksteady Games\n    ',b'',"b'\n    London, Greater London, United Kingdom\n  '",b'https://www.linkedin.com/in/scott-white-6a377a5a/'
b'\n      Ronan Murphy\n    ',b'\n      Python Developer at Origin Markets\n    ',b'',"b'\n    London, United Kingdom\n  '",b'https://www.linkedin.com/in/ronan-murphy-53898871/'
b'\n      Yaroslav Bikov\n    ',b'\n      Software Developer at Bank of America Merrill Lynch\n    ',b'',"b'\n    London, United Kingdom\n  '",b'https://www.linkedin.com/in/python-developer/'
b'\n      Alex Eastwood\n    ',b'\n      Python Developer at Firmstep\n    ',b'',"b'\n    London, United Kingdom\n  '",b'https://www.linkedin.com/in/eastwoodalex/'
b'\n      Rupert Bedford\n    ',b'\n      Python Developer\n    ',b'',"b'\n    London, United Kingdom\n  '",b'https://www.linkedin.com/in/rupert-bedford-29277796/'
b'\n      Gautier Hayoun\n    ',b'\n      Contract Python Developer at Bank Of America\n    ',b'',"b'\n    London, United Kingdom\n  '",b'https://www.linkedin.com/in/gowtier/'
b'\n      Nestor Arocha\n    ',b'\n      Senior Python Developer at iwoca\n    ',b'',"b'\n    London, United Kingdom\n  '",b'https://www.linkedin.com/in/nestor-arocha-5869a010/'
b'\n      Ugo Anomelechi\n    ',b'\n      Senior Python Developer at infloAI\n    ',b'',"b'\n    Croydon, United Kingdom\n  '",b'https://www.linkedin.com/in/ugoano/'
b'\n      Tobey Asinugo\n    ',b'\n      Python Developer at Ueni Ltd\n    ',b'',"b'\n    London, Greater London, United Kingdom\n  '",b'https://www.linkedin.com/in/tobey-asinugo-84916877/'
b'\n      Paul Garner\n    ',b'\n      Freelance Python Developer at Depop\n    ',b'',"b'\n    London, United Kingdom\n  '",b'https://www.linkedin.com/in/pauljgarner/'
b'\n      Scott White\n    ',b'\n      Python Developer / Django Developer at Rocksteady Games\n    ',b'',"b'\n    London, Greater London, United Kingdom\n  '",b'https://www.linkedin.com/in/scott-white-6a377a5a/'
b'\n      Ronan Murphy\n    ',b'\n      Python Developer at Origin Markets\n    ',b'',"b'\n    London, United Kingdom\n  '",b'https://www.linkedin.com/in/ronan-murphy-53898871/'
b'\n      Yaroslav Bikov\n    ',b'\n      Software Developer at Bank of America Merrill Lynch\n    ',b'',"b'\n    London, United Kingdom\n  '",b'https://www.linkedin.com/in/python-developer/'
b'\n      Alex Eastwood\n    ',b'\n      Python Developer at Firmstep\n    ',b'',"b'\n    London, United Kingdom\n  '",b'https://www.linkedin.com/in/eastwoodalex/'
b'\n      Rupert Bedford\n    ',b'\n      Python Developer\n    ',b'',"b'\n    London, United Kingdom\n  '",b'https://www.linkedin.com/in/rupert-bedford-29277796/'
b'\n      Gautier Hayoun\n    ',b'\n      Contract Python Developer at Bank Of America\n    ',b'',"b'\n    London, United Kingdom\n  '",b'https://www.linkedin.com/in/gowtier/'
b'\n      Nestor Arocha\n    ',b'\n      Senior Python Developer at iwoca\n    ',b'',"b'\n    London, United Kingdom\n  '",b'https://www.linkedin.com/in/nestor-arocha-5869a010/'
b'\n      Ugo Anomelechi\n    ',b'\n      Senior Python Developer at infloAI\n    ',b'',"b'\n    Croydon, United Kingdom\n  '",b'https://www.linkedin.com/in/ugoano/'
b'\n      Tobey Asinugo\n    ',b'\n      Python Developer at Ueni Ltd\n    ',b'',"b'\n    London, Greater London, United Kingdom\n  '",b'https://www.linkedin.com/in/tobey-asinugo-84916877/'
b'',b'',b'',b'',b'https://www.linkedin.com/in/pauljgarner'
b'',b'',b'',b'',b'https://www.linkedin.com/in/scott-white-6a377a5a'
b'',b'',b'',b'',b'https://www.linkedin.com/in/ronan-murphy-53898871'
b'',b'',b'',b'',b'https://www.linkedin.com/in/python-developer'
b'\n      Alex Eastwood\n    ',b'\n      Python Developer at Firmstep\n    ',b'',"b'\n    London, United Kingdom\n  '",b'https://www.linkedin.com/in/eastwoodalex/'
b'',b'',b'',b'',b'https://www.linkedin.com/in/rupert-bedford-29277796'
b'\n      Gautier Hayoun\n    ',b'\n      Contract Python Developer at Bank Of America\n    ',b'',"b'\n    London, United Kingdom\n  '",b'https://www.linkedin.com/in/gowtier/'
b'',b'',b'',b'',b'https://www.linkedin.com/in/nestor-arocha-5869a010'
b'\n      Ugo Anomelechi\n    ',b'\n      Senior Python Developer at infloAI\n    ',b'',"b'\n    Croydon, United Kingdom\n  '",b'https://www.linkedin.com/in/ugoano/'
b'\n      Tobey Asinugo\n    ',b'\n      Python Developer at Ueni Ltd\n    ',b'',"b'\n    London, Greater London, United Kingdom\n  '",b'https://www.linkedin.com/in/tobey-asinugo-84916877/'
b'\n      Paul Garner\n    ',b'\n      Freelance Python Developer at Depop\n    ',b'',"b'\n    London, United Kingdom\n  '",b'https://www.linkedin.com/in/pauljgarner/'
b'',b'',b'',b'',b'https://www.linkedin.com/in/scott-white-6a377a5a'
b'\n      Ronan Murphy\n    ',b'\n      Python Developer at Origin Markets\n    ',b'',"b'\n    London, United Kingdom\n  '",b'https://www.linkedin.com/in/ronan-murphy-53898871/'
b'\n      Yaroslav Bikov\n    ',b'\n      Software Developer at Bank of America Merrill Lynch\n    ',b'',"b'\n    London, United Kingdom\n  '",b'https://www.linkedin.com/in/python-developer/'
b'\n      Alex Eastwood\n    ',b'\n      Python Developer at Firmstep\n    ',b'',"b'\n    London, United Kingdom\n  '",b'https://www.linkedin.com/in/eastwoodalex/'
b'\n      Rupert Bedford\n    ',b'\n      Python Developer\n    ',b'',"b'\n    London, United Kingdom\n  '",b'https://www.linkedin.com/in/rupert-bedford-29277796/'
b'\n      Gautier Hayoun\n    ',b'\n      Contract Python Developer at Bank Of America\n    ',b'',"b'\n    London, United Kingdom\n  '",b'https://www.linkedin.com/in/gowtier/'
b'',b'',b'',b'',b'https://www.linkedin.com/in/nestor-arocha-5869a010'
b'',b'',b'',b'',b'https://www.linkedin.com/in/ugoano'
b'\n      Tobey Asinugo\n    ',b'\n      Python Developer at Ueni Ltd\n    ',b'',"b'\n    London, Greater London, United Kingdom\n  '",b'https://www.linkedin.com/in/tobey-asinugo-84916877/'
b'\n      Paul Garner\n    ',b'\n      Freelance Python Developer at Depop\n    ',b'',"b'\n    London, United Kingdom\n  '",b'https://www.linkedin.com/in/pauljgarner/'
b'\n      Scott White\n    ',b'\n      Python Developer / Django Developer at Rocksteady Games\n    ',b'',"b'\n    London, Greater London, United Kingdom\n  '",b'https://www.linkedin.com/in/scott-white-6a377a5a/'
b'',b'',b'',b'',b'https://www.linkedin.com/in/ronan-murphy-53898871'
b'',b'',b'',b'',b'https://www.linkedin.com/in/python-developer'
b'',b'',b'',b'',b'https://www.linkedin.com/in/eastwoodalex'
b'\n      Rupert Bedford\n    ',b'\n      Python Developer\n    ',b'',"b'\n    London, United Kingdom\n  '",b'https://www.linkedin.com/in/rupert-bedford-29277796/'
b'\n      Gautier Hayoun\n    ',b'\n      Contract Python Developer at Bank Of America\n    ',b'',"b'\n    London, United Kingdom\n  '",b'https://www.linkedin.com/in/gowtier/'
b'\n      Nestor Arocha\n    ',b'\n      Senior Python Developer at iwoca\n    ',b'',"b'\n    London, United Kingdom\n  '",b'https://www.linkedin.com/in/nestor-arocha-5869a010/'
b'\n      Ugo Anomelechi\n    ',b'\n      Senior Python Developer at infloAI\n    ',b'',"b'\n    Croydon, United Kingdom\n  '",b'https://www.linkedin.com/in/ugoano/'
b'\n      Tobey Asinugo\n    ',b'\n      Python Developer at Ueni Ltd\n    ',b'',"b'\n    London, Greater London, United Kingdom\n  '",b'https://www.linkedin.com/in/tobey-asinugo-84916877/'
b'\n      Paul Garner\n    ',b'\n      Freelance Python Developer at Depop\n    ',b'',"b'\n    London, United Kingdom\n  '",b'https://www.linkedin.com/in/pauljgarner/'
b'',b'',b'',b'',b'https://www.linkedin.com/in/scott-white-6a377a5a'
b'',b'',b'',b'',b'https://www.linkedin.com/in/ronan-murphy-53898871'
Name,Job Title,School,Location,URL
b'\n      Paul Garner\n    ',b'\n      Freelance Python Developer at Depop\n    ',b'',"b'\n    London, United Kingdom\n  '",b'https://www.linkedin.com/in/pauljgarner/'
b'\n      Ronan Murphy\n    ',b'\n      Python Developer at Origin Markets\n    ',b'',"b'\n    London, United Kingdom\n  '",b'https://www.linkedin.com/in/ronan-murphy-53898871/'
b'\n      Scott White\n    ',b'\n      Python Developer / Django Developer at Rocksteady Games\n    ',b'',"b'\n    London, Greater London, United Kingdom\n  '",b'https://www.linkedin.com/in/scott-white-6a377a5a/'
b'',b'',b'',b'',b'https://www.linkedin.com/in/python-developer'
b'',b'',b'',b'',b'https://www.linkedin.com/in/gowtier'
b'',b'',b'',b'',b'https://www.linkedin.com/in/eastwoodalex'
b'',b'',b'',b'',b'https://www.linkedin.com/in/rupert-bedford-29277796'
b'',b'',b'',b'',b'https://www.linkedin.com/in/nestor-arocha-5869a010'
b'',b'',b'',b'',b'https://www.linkedin.com/in/serge-kuts'
b'',b'',b'',b'',b'https://www.linkedin.com/in/ugoano'
